<?xml version="1.0" encoding="UTF-8"?>
<svg width="98px" height="21px" viewBox="0 0 98 21" version="1.1" xmlns="http://www.w3.org/2000/svg" xmlns:xlink="http://www.w3.org/1999/xlink">
    <!-- Generator: Sketch 40.3 (33839) - http://www.bohemiancoding.com/sketch -->
    <title>aps-logo-iron</title>
    <desc>Created with Sketch.</desc>
    <defs>
        <polyline id="path-1" points="0 0.441913043 97.7198679 0.441913043 97.7198679 21 0 21"></polyline>
        <polygon id="path-3" points="0 0.441913043 97.7198679 0.441913043 97.7198679 21 0 21"></polygon>
    </defs>
    <g id="Symbols" stroke="none" stroke-width="1" fill="none" fill-rule="evenodd">
        <g id="aps-logo-iron">
            <g id="Group-3">
                <mask id="mask-2" fill="white">
                    <use xlink:href="#path-1"></use>
                </mask>
                <g id="Clip-2"></g>
                <path d="M16.8612698,21 L3.95485472,21 C1.77943962,21 -0.00027735849,19.2423913 -0.00027735849,17.094 L-0.00027735849,4.34791304 C-0.00027735849,2.19952174 1.77943962,0.441913043 3.95485472,0.441913043 L16.8612698,0.441913043 C19.0366849,0.441913043 20.8164019,2.19952174 20.8164019,4.34791304 L20.8164019,17.094 C20.8164019,19.2423913 19.0366849,21 16.8612698,21 Z M10.6797811,6.87183913 C12.342083,6.52031739 13.9128566,5.35527391 15.3652906,3.1374913 C13.7177811,8.09166522 13.7177811,13.147187 15.3652906,18.3040565 C14.1218,16.2716217 12.5482528,15.0536217 10.6455736,14.6500565 C10.6770075,14.5523609 10.6936491,14.4482739 10.6936491,14.3414478 L10.6936491,11.9574913 C11.2271019,11.9574913 11.6634792,11.3868391 11.6634792,10.6892739 C11.6634792,9.99262174 11.2271019,9.42196957 10.6936491,9.42196957 L10.6936491,7.03801304 C10.6936491,6.98140435 10.6890264,6.9257087 10.6797811,6.87183913 Z M9.39145094,14.6424783 C7.21603585,14.6424783 5.45111132,12.8994783 5.45111132,10.751087 C5.45111132,8.60269565 7.21603585,6.8606087 9.39145094,6.8606087 L9.39145094,14.6424783 Z" id="Combined-Shape" fill="#CCD0D1" mask="url(#mask-2)"></path>
            </g>
            <path d="M69.3521038,7.1232913 C69.3521038,8.13859565 69.0109528,8.88637826 68.3295755,9.36663913 C67.6481981,9.8469 66.4407642,10.0870304 64.7091226,10.0870304 L53.1007453,10.0870304 L53.1007453,3.23555217 L64.7091226,3.23555217 C66.4592547,3.23555217 67.6935,3.48937826 68.412783,3.99703043 C69.0386887,4.4499 69.3521038,5.18398696 69.3521038,6.1992913 L69.3521038,7.1232913 Z M69.9465755,2.52885652 C68.8315943,1.69433478 67.123066,1.27798696 64.8191415,1.27798696 L50.8624623,1.27798696 L50.8624623,20.1469435 L53.1007453,20.1469435 L53.1007453,12.0445957 L64.8191415,12.0445957 C67.1406321,12.0445957 68.8547075,11.6319 69.9604434,10.8074217 C71.0661792,9.98294348 71.6181226,8.7822913 71.6181226,7.20455217 L71.6181226,6.11711739 C71.6181226,4.55855217 71.0606321,3.36246522 69.9465755,2.52885652 L69.9465755,2.52885652 Z" id="Fill-8" fill="#CCD0D1"></path>
            <path d="M53.9477981,9.25095652 L64.7093075,9.25095652 C66.6304774,9.25095652 67.4708736,8.94326087 67.8379113,8.68395652 C68.1235906,8.48217391 68.5054208,8.10234783 68.5054208,7.12447826 L68.5054208,6.19956522 C68.5054208,5.10117391 68.0597981,4.77886957 67.9137226,4.67295652 C67.5281943,4.40086957 66.6545151,4.07034783 64.7093075,4.07034783 L53.9477981,4.07034783 L53.9477981,9.25095652 Z M64.7093075,10.9236522 L52.2540623,10.9236522 L52.2540623,2.39765217 L64.7093075,2.39765217 C66.6591377,2.39765217 68.0320623,2.69713043 68.9057415,3.31708696 C69.7655528,3.93704348 70.1991566,4.90486957 70.1991566,6.19956522 L70.1991566,7.12447826 C70.1991566,8.73691304 69.4493642,9.6033913 68.8216094,10.0471304 C67.9821377,10.6369565 66.6378736,10.9236522 64.7093075,10.9236522 L64.7093075,10.9236522 Z M51.7085906,19.3090435 L52.2540623,19.3090435 L52.2540623,11.2085217 L64.8202509,11.2085217 C66.9411189,11.2085217 68.4989491,10.8487826 69.4493642,10.1402609 C70.3369113,9.4773913 70.7705151,8.51504348 70.7705151,7.20482609 L70.7705151,6.11647826 C70.7705151,4.8236087 70.3350623,3.86673913 69.4364208,3.19656522 C68.4776849,2.478 66.9244774,2.11552174 64.8202509,2.11552174 L51.7085906,2.11552174 L51.7085906,19.3090435 Z M53.9477981,20.9817391 L50.0148547,20.9817391 L50.0148547,0.442826087 L64.8202509,0.442826087 C67.336817,0.442826087 69.1812509,0.90573913 70.4571,1.86078261 C71.7884208,2.85873913 72.4651755,4.28947826 72.4651755,6.11647826 L72.4651755,7.20482609 C72.4651755,9.05191304 71.7939679,10.4881304 70.4700434,11.4760435 C69.2015906,12.4228696 67.3534585,12.8812174 64.8202509,12.8812174 L53.9477981,12.8812174 L53.9477981,20.9817391 Z" id="Fill-10" fill="#CCD0D1"></path>
            <path d="M30.9671679,13.6486304 L37.0154321,2.66471739 L43.1006774,13.6486304 L30.9671679,13.6486304 Z M35.4123,1.27780435 L24.9651302,20.1467609 L27.3143566,20.1467609 L29.8290736,15.6061957 L44.1509415,15.6061957 L46.6379226,20.1604565 L49.0934698,20.1467609 L38.6463,1.27780435 L35.4123,1.27780435 Z" id="Fill-12" fill="#CCD0D1"></path>
            <path d="M32.3920509,12.8110957 L41.672466,12.8110957 L37.017466,4.41109565 L32.3920509,12.8110957 Z M29.3263151,14.7686609 L44.6559189,14.7686609 L47.1419755,19.3220087 L47.6689566,19.3165304 L38.1435415,2.11570435 L37.6757302,2.11570435 L44.5292585,14.4837913 L29.5426547,14.4837913 L36.3527302,2.11570435 L35.9154283,2.11570435 L26.3937113,19.3092261 L26.8115981,19.3092261 L29.3263151,14.7686609 Z M46.1342396,20.9992696 L43.6454094,16.4413565 L30.3322019,16.4413565 L27.8165604,20.9819217 L23.5369189,20.9819217 L34.910466,0.442095652 L39.1494283,0.442095652 L50.5165038,20.9746174 L46.1342396,20.9992696 Z" id="Fill-14" fill="#CCD0D1"></path>
            <path d="M94.8960811,10.6849826 C93.5786283,9.90524348 91.1045906,9.51628696 87.4748925,9.51628696 L81.2565151,9.38024348 C78.7325528,9.38024348 77.0970623,9.17572174 76.3509679,8.76850435 C75.6048736,8.36037391 75.2313642,7.55872174 75.2313642,6.36263478 C75.2313642,5.27428696 75.4893075,4.49546087 76.0051943,4.02433043 C76.5950434,3.49841739 77.6637981,3.23546087 79.2114585,3.23546087 L89.4099302,3.23546087 C91.3079868,3.23546087 92.6707415,3.53402609 93.5000434,4.13298261 C94.2368925,4.65798261 94.6057792,5.48337391 94.6057792,6.60641739 L96.7063075,6.60641739 C96.7063075,3.05376522 94.4217981,1.27789565 89.8518547,1.27789565 L79.2937415,1.27789565 C77.1941377,1.27789565 75.6418547,1.68146087 74.6368925,2.48767826 C73.6328547,3.2948087 73.1308358,4.57672174 73.1308358,6.33524348 C73.1308358,8.16589565 73.6189868,9.42498261 74.5952887,10.1143304 C75.7195151,10.9114174 77.8570245,11.3104174 81.007817,11.3104174 L88.0554962,11.4738522 C90.7828547,11.4738522 92.6161943,11.7276783 93.5555151,12.2344174 C94.3663264,12.6699391 94.7712698,13.5126783 94.7712698,14.7635478 C94.7712698,16.0317652 94.4079302,16.9201565 93.6803264,17.4278087 C92.9517981,17.9354609 91.7684019,18.189287 90.1282887,18.189287 L80.5658925,18.189287 C78.6493453,18.189287 77.285666,17.8898087 76.4748547,17.2917652 C75.7564962,16.7658522 75.3968547,15.9322435 75.3968547,14.7909391 L73.2963264,14.7909391 C73.2963264,16.5850696 73.8723075,17.9263304 75.0242698,18.8147217 C76.1753075,19.7022 77.7923075,20.1468522 79.8743453,20.1468522 L90.2392321,20.1468522 C92.6161943,20.1468522 94.3154774,19.7478522 95.3380057,18.9498522 C96.360534,18.1527652 96.8717981,16.7749826 96.8717981,14.8174174 C96.8717981,12.8415913 96.213534,11.4647217 94.8960811,10.6849826" id="Fill-16" fill="#CCD0D1"></path>
            <g id="Group-20">
                <mask id="mask-4" fill="white">
                    <use xlink:href="#path-3"></use>
                </mask>
                <g id="Clip-19"></g>
                <path d="M74.1946906,15.6279261 C74.3379925,16.7363609 74.7836151,17.5681435 75.5472755,18.1579696 C76.5365208,18.9212739 77.9935774,19.3093174 79.8740679,19.3093174 L90.2398792,19.3093174 C92.4106717,19.3093174 93.9490868,18.9687522 94.8116717,18.294013 C95.6178604,17.6658391 96.0255774,16.4944043 96.0255774,14.8162304 C96.0255774,13.1435348 95.5133887,12.0250565 94.4594264,11.4023609 C93.6504642,10.9239261 91.7801434,10.3523609 87.4736906,10.3523609 L81.2386717,10.2163174 L81.2340491,10.2163174 C78.5242566,10.2163174 76.8351434,9.98896957 75.9402,9.5004913 C75.2301623,9.11244783 74.3832943,8.25327391 74.3832943,6.36053478 C74.3832943,5.03296957 74.7355396,4.0404913 75.4317094,3.40775217 C76.1972189,2.72479565 77.4323887,2.39792609 79.2102566,2.39792609 L89.4105774,2.39792609 C91.5129547,2.39792609 93.0125396,2.74488261 93.9999358,3.45796957 C94.7608226,3.99757826 95.2277094,4.77640435 95.3876528,5.77162174 L95.8120113,5.77162174 C95.5919736,4.0131 94.4853132,2.11579565 89.8515774,2.11579565 L79.2943887,2.11579565 C77.4037283,2.11579565 76.0160113,2.46092609 75.1691434,3.13840435 C74.3685019,3.78301304 73.9774264,4.82936087 73.9774264,6.33588261 C73.9774264,7.87253478 74.3500113,8.91340435 75.0877849,9.43475217 C75.7589925,9.90862174 77.327917,10.4728826 81.0093887,10.4728826 L88.076483,10.6363174 L88.0783321,10.6363174 C90.951766,10.6363174 92.8831057,10.9184478 93.9620302,11.4982304 C94.7173698,11.9036217 95.6178604,12.8011435 95.6178604,14.7632739 C95.6178604,16.3154478 95.130634,17.4421435 94.1663509,18.1123174 C93.2880491,18.7240565 91.9668981,19.0244478 90.1270868,19.0244478 L80.5656151,19.0244478 C78.4401245,19.0244478 76.937766,18.6765783 75.9679358,17.9607522 C75.222766,17.4193174 74.7688226,16.6359261 74.6107283,15.6279261 L74.1946906,15.6279261 Z M90.2398792,20.982013 L79.8740679,20.982013 C77.6080491,20.982013 75.7996717,20.4752739 74.503483,19.4754913 C73.1407283,18.4218391 72.4491811,16.845013 72.4491811,14.7915783 L72.4491811,13.9552304 L76.2434453,13.9552304 L76.2434453,14.7915783 C76.2434453,15.6607957 76.4828981,16.2579261 76.9784453,16.6176652 C77.4351623,16.9536652 78.4225585,17.3517522 80.5656151,17.3517522 L90.1270868,17.3517522 C91.9410113,17.3517522 92.7934264,17.0212304 93.1891245,16.7436652 C93.6837472,16.4012739 93.9241245,15.7539261 93.9241245,14.7632739 C93.9241245,13.527013 93.4822,13.1462739 93.1502943,12.9700565 C92.5918792,12.6678391 91.2550113,12.3099261 88.0561434,12.3099261 L80.9890491,12.1455783 C77.6468792,12.1455783 75.3864075,11.7045783 74.1031623,10.795187 C72.8957283,9.94331739 72.2836906,8.44227391 72.2836906,6.33588261 C72.2836906,4.32262174 72.8957283,2.80788261 74.1003887,1.84096957 C75.2736151,0.898708696 76.9728981,0.442186957 79.2943887,0.442186957 L89.8515774,0.442186957 C96.2169547,0.442186957 97.5538226,3.79579565 97.5538226,6.60796957 L97.5538226,7.44431739 L93.7577094,7.44431739 L93.7577094,6.60796957 C93.7577094,5.75883913 93.5099358,5.17175217 93.0051434,4.81383913 C92.533634,4.47144783 91.5332943,4.07062174 89.4105774,4.07062174 L79.2102566,4.07062174 C77.4786151,4.07062174 76.8148038,4.43127391 76.5725774,4.64492609 C76.1639358,5.01562174 76.0779547,5.7834913 76.0779547,6.36053478 C76.0779547,7.66344783 76.5901434,7.94283913 76.7584075,8.03414348 C77.1078792,8.22496957 78.1544453,8.5427087 81.2562377,8.5427087 L87.4921811,8.67875217 C91.2956906,8.67875217 93.8649547,9.09966522 95.3321811,9.96614348 C96.9158981,10.9065783 97.7202377,12.5363609 97.7202377,14.8162304 C97.7202377,17.034013 97.0952566,18.6464478 95.8628604,19.6060565 C94.6766906,20.5337087 92.8368792,20.982013 90.2398792,20.982013 L90.2398792,20.982013 Z" id="Fill-18" fill="#CCD0D1" mask="url(#mask-4)"></path>
            </g>
        </g>
    </g>
</svg>